…
### **q1** Re-create the following table (from Michelson (1880), pg. 139) using `df_michelson` and `dplyr`. Note that your values *will not* match those of Michelson *exactly*; why might this be?

| Distinctness | n   | MeanVelocity |
|--------------|-----|--------------|
| 3            | 46  | 299860       |
| 2            | 39  | 299860       |
| 1            | 15  | 299810       |

``` r
## TODO: Compute summaries
df_michelson
```

    ## # A tibble: 100 × 4
    ##    Date                Distinctness  Temp Velocity
    ##    <dttm>              <fct>        <dbl>    <dbl>
    ##  1 1879-06-05 00:00:00 3               76   299850
    ##  2 1879-06-07 00:00:00 2               72   299740
    ##  3 1879-06-07 00:00:00 2               72   299900
    ##  4 1879-06-07 00:00:00 2               72   300070
    ##  5 1879-06-07 00:00:00 2               72   299930
    ##  6 1879-06-07 00:00:00 2               72   299850
    ##  7 1879-06-09 00:00:00 3               83   299950
    ##  8 1879-06-09 00:00:00 3               83   299980
    ##  9 1879-06-09 00:00:00 3               83   299980
    ## 10 1879-06-09 00:00:00 3               83   299880
    ## # ℹ 90 more rows
…
### **q2** Create a new variable `VelocityVacuum` with the $+92$ km/s adjustment to `Velocity`. Assign this new dataframe to `df_q2`.

``` r
## TODO: Adjust the data, assign to df_q2
df_q2 <- df_michelson %>%
  mutate(velocityvacuum = Velocity + 92)
df_q2
```

    ## # A tibble: 100 × 5
    ##    Date                Distinctness  Temp Velocity velocityvacuum
    ##    <dttm>              <fct>        <dbl>    <dbl>          <dbl>
    ##  1 1879-06-05 00:00:00 3               76   299850         299942
    ##  2 1879-06-07 00:00:00 2               72   299740         299832
    ##  3 1879-06-07 00:00:00 2               72   299900         299992
    ##  4 1879-06-07 00:00:00 2               72   300070         300162
    ##  5 1879-06-07 00:00:00 2               72   299930         300022
    ##  6 1879-06-07 00:00:00 2               72   299850         299942
    ##  7 1879-06-09 00:00:00 3               83   299950         300042
    ##  8 1879-06-09 00:00:00 3               83   299980         300072
    ##  9 1879-06-09 00:00:00 3               83   299980         300072
    ## 10 1879-06-09 00:00:00 3               83   299880         299972
    ## # ℹ 90 more rows
…
